{
    "users": [
        {
            "user": "grizzly",
            "password": "$2a$14$E39GF/8O/yltZderFmZG1.2omVXF4TcajdrocsflKWQYP5QHcldAe",
            "is_admin": true,
            "is_dev": true
        },
        {
            "user": "grizzly2",
            "password": "$2a$14$9f27eb578IM9xqlqRbxW7.1JKa5VdUefLuYdYeh71qxzfyjLxt/8S",
            "is_admin": false,
            "is_dev": false
        }
    ]
}